0 data-../../medias/txt/tmp.txt 4 123 test_123;
1000 data-../../medias/txt/tmp.txt 67 97 test_97;
1000 data-../../medias/txt/tmp.txt 56 52 test_52;
1000 data-../../medias/txt/tmp.txt 17 85 test_85;
1000 data-../../medias/txt/tmp.txt 50 36 test_36;
1000 data-../../medias/txt/tmp.txt 56 63 test_63;
