0, 0 0.1075 0.215 0.3225 0.43 0.5375 0.645 0.7525 0.86 0.9675 0.984444
0.962148 0.939852 0.917555 0.895259 0.872963 0.850666 0.82837 0.806074
0.783777 0.761481 0.739185 0.716888 0.694592 0.672296 0.649999 0.627703
0.605407 0.58311 0.560814 0.538518 0.533027 0.532629 0.532231 0.531833
0.531435 0.531037 0.530639 0.530241 0.529842 0.529444 0.529046 0.528648
0.52825 0.527852 0.527454 0.527056 0.526657 0.526259 0.525861 0.525463
0.525065 0.524667 0.524269 0.52387 0.523472 0.523074 0.522676 0.522278
0.52188 0.521482 0.521083 0.520685 0.520287 0.519889 0.519491 0.519093
0.518695 0.518297 0.517898 0.5175 0.517102 0.516704 0.499876 0.481362
0.462848 0.444334 0.42582 0.407306 0.388792 0.370278 0.351764 0.333251
0.314737 0.296223 0.277709 0.259195 0.240681 0.222167 0.203653 0.185139
0.166626 0.148112 0.129598 0.111084 0.09257 0.0740561 0.0555422 0.0370283
0.0185145;
1, 0 0.0043 0.0086 0.0129 0.0172 0.0215 0.0258 0.0301 0.0344 0.0387
0.043 0.0473 0.0516 0.0559 0.0602 0.0645 0.0688 0.0731 0.0774 0.0817
0.086 0.0903001 0.0946001 0.0989001 0.1032 0.1075 0.1118 0.1161 0.1204
0.1247 0.129 0.1333 0.1376 0.1419 0.1462 0.150652 0.156261 0.16187
0.167478 0.173087 0.178696 0.184304 0.189913 0.195522 0.201131 0.206739
0.212348 0.217957 0.223565 0.229174 0.234783 0.240391 0.246 0.251609
0.257217 0.262826 0.268435 0.274044 0.279652 0.285261 0.29087 0.296478
0.304267 0.315733 0.3272 0.338667 0.350134 0.3616 0.373067 0.384534
0.396 0.407467 0.418934 0.4304 0.441867 0.453334 0.4648 0.476267 0.487734
0.4992 0.510667 0.522134 0.533601 0.545067 0.556534 0.570001 0.598668
0.627334 0.656001 0.684667 0.713334 0.742001 0.770667 0.799334 0.828
0.856667 0.885334 0.914 0.942667 0.971333;
2, 0 0.969542 0.939083 0.908625 0.878167 0.847709 0.81725 0.786792
0.756334 0.725875 0.704667 0.687467 0.670267 0.653067 0.635867 0.618667
0.601467 0.584267 0.567067 0.549867 0.532667 0.515905 0.504984 0.494064
0.483143 0.472222 0.461302 0.450381 0.439461 0.42854 0.417619 0.406699
0.395778 0.384857 0.373937 0.363016 0.352095 0.341175 0.330254 0.319333
0.308413 0.297492 0.286571 0.275651 0.26473 0.253809 0.246051 0.239987
0.233923 0.227859 0.221795 0.215731 0.209667 0.203603 0.197538 0.191474
0.18541 0.179346 0.173282 0.167218 0.161154 0.15509 0.149026 0.142962
0.136898 0.130833 0.124769 0.118705 0.112641 0.106577 0.100513 0.0944489
0.0883848 0.0823207 0.0762566 0.0701925 0.0655239 0.0627938 0.0600636
0.0573335 0.0546033 0.0518731 0.049143 0.0464128 0.0436826 0.0409525
0.0382223 0.0354922 0.032762 0.0300318 0.0273017 0.0245715 0.0218414
0.0191112 0.016381 0.0136509 0.0109207 0.00819056 0.0054604 0.00273024
;
3, 0 0.02 0.04 0.06 0.08 0.1 0.12 0.14 0.16 0.18 0.2 0.22 0.24 0.26
0.28 0.3 0.32 0.34 0.36 0.38 0.4 0.42 0.44 0.46 0.48 0.5 0.52 0.54
0.56 0.58 0.6 0.62 0.64 0.66 0.68 0.7 0.72 0.74 0.76 0.78 0.8 0.82
0.84 0.86 0.88 0.9 0.92 0.94 0.96 0.98 1 0.98 0.96 0.94 0.92 0.9 0.88
0.86 0.84 0.82 0.8 0.78 0.76 0.74 0.72 0.7 0.68 0.66 0.64 0.62 0.6
0.58 0.56 0.54 0.52 0.5 0.48 0.46 0.44 0.42 0.4 0.38 0.36 0.34 0.32
0.3 0.28 0.26 0.24 0.22 0.2 0.18 0.16 0.14 0.12 0.1 0.08 0.06 0.04
0.02;
4, 0 0.043 0.0859999 0.129 0.172 0.215 0.258 0.301 0.344 0.387 0.43
0.473 0.516 0.559 0.600969 0.621818 0.642667 0.663515 0.684363 0.705212
0.726061 0.746909 0.767758 0.788606 0.809455 0.830303 0.851152 0.8685
0.875667 0.882833 0.89 0.897167 0.904333 0.9115 0.918667 0.925833 0.933
0.940167 0.947333 0.9545 0.961666 0.968833 0.976 0.983166 0.990333
0.9975 0.998756 0.996845 0.994933 0.993022 0.991111 0.9892 0.987289
0.985378 0.983467 0.981556 0.979645 0.977734 0.975823 0.973912 0.972
0.970089 0.968178 0.964043 0.951502 0.93896 0.926418 0.913876 0.901335
0.888793 0.876251 0.86371 0.851168 0.833102 0.814469 0.795835 0.777202
0.758568 0.739935 0.721302 0.702668 0.684035 0.665402 0.646768 0.62248
0.583575 0.54467 0.505766 0.466861 0.427956 0.389051 0.350147 0.311242
0.272337 0.233433 0.194528 0.155623 0.116719 0.0778141 0.0389094;
5, 0 0.122857 0.245714 0.368572 0.491429 0.614286 0.737143 0.86 0.982858
1 1 1 1 1 1 1 1 1 1 1 1 1 1 1 1 1 1 1 1 1 0.88571 0.762852 0.639995
0.517138 0.394281 0.271423 0.148566 0.025709 0 0 0 0 0 0 0 0 0 0 0
0 0 0 0 0 0 0 0 0 0 0 0 0 0 0 0 0 0 0.103335 0.246668 0.390001 0.533334
0.676667 0.82 0.963333 1 1 1 1 1 1 1 1 1 1 1 1 1 1 1 1 0.955558 0.860003
0.764447 0.668891 0.573336 0.47778 0.382224 0.286668 0.191113 0.0955572
;
6, 0.986077 0.986077 0.96941 0.952744 0.936077 0.91941 0.902744 0.86941
0.836077 0.81941 0.802744 0.76941 0.736077 0.71941 0.702744 0.652744
0.636077 0.602744 0.552744 0.536077 0.486077 0.469411 0.452744 0.436077
0.386077 0.361077 0.336078 0.319411 0.286078 0.269411 0.252744 0.236078
0.219411 0.186078 0.169411 0.152744 0.152744 0.136078 0.136078 0.119411
0.113856 0.1083 0.102744 0.102744 0.102744 0.102744 0.102744 0.102744
0.102744 0.102744 0.102744 0.111078 0.119411 0.136078 0.152744 0.161078
0.169411 0.169411 0.186078 0.194411 0.202744 0.219411 0.236078 0.252744
0.269411 0.286078 0.302744 0.319411 0.336078 0.352744 0.369411 0.386077
0.402744 0.419411 0.436077 0.436077 0.452744 0.469411 0.477744 0.486077
0.491633 0.497188 0.502744 0.519411 0.536077 0.552744 0.569411 0.586077
0.619411 0.652744 0.669411 0.686077 0.702744 0.752744 0.76941 0.786077
0.802744 0.836077 0.852744 0.886077;
7, 0 0.0248948 0.0497895 0.0746843 0.0995791 0.124474 0.149369 0.174263
0.199158 0.224053 0.248948 0.273842 0.298737 0.323632 0.348527 0.373421
0.398316 0.423211 0.448106 0.473 0.497895 0.52279 0.547685 0.537 0.522666
0.508333 0.494 0.479667 0.465333 0.451 0.436667 0.422333 0.408 0.393667
0.379333 0.365152 0.352121 0.339091 0.326061 0.31303 0.3 0.28697 0.273939
0.260909 0.247879 0.234848 0.221818 0.208788 0.204045 0.216467 0.228889
0.241311 0.253734 0.266156 0.278578 0.291 0.303422 0.315845 0.328267
0.340689 0.353111 0.365533 0.377956 0.390378 0.4028 0.415222 0.459733
0.508466 0.557199 0.605932 0.654666 0.703399 0.752132 0.800866 0.849599
0.898332 0.947066 0.980766 0.970733 0.9607 0.950666 0.940633 0.9306
0.920567 0.910533 0.9005 0.890467 0.880433 0.8704 0.860367 0.850333
0.8403 0.830267 0.820233 0.8102 0.800167 0.790133 0.7801 0.770067 0.760033
;
8, 0.58 0.58 0.58 0.58 0.79 0.36 0.27 0.65 0.57 0.32 0.73 0.26 0.6
0.6 0.6 0.6 0.83 0.6 0.46 0.01 0.84 0.45 0.86 0.46 0.64 0.74 0.95 0.03
0.39 0.6 0.06 0.91 0.526667 0.526667 0.526667 0.526667 0.526667 0.526667
0.543334 0.543334 0.543334 0.56 0.568334 0.576667 0.585 0.593334 0.593334
0.593334 0.61 0.61 0.615556 0.621111 0.626667 0.626667 0.643333 0.66
0.665556 0.671111 0.676667 0.676667 0.693333 0.71 0.726667 0.743333
0.751667 0.76 0.768333 0.776667 0.843333 0.859999 0.876665 0.876665
0.876665 0.876665 0.859999 0.843333 0.843333 0.826666 0.676669 0.54
0.523333 0.523333 0.523333 0.515 0.506667 0.506667 0.506667 0.498333
0.49 0.494167 0.498333 0.5025 0.506666 0.506666 0.506666 0.506666 0.506666
0.506666 0.506666 0.406668;
9, 0.686667 0.636667 0.703333 0.72 0.736667 0.87 0.886666 0.903333
0.92 0.945 0.953333 0.97 0.97 0.97 0.986666 1.00333 1.00333 1.00333
1.00333 1.00333 1.00333 1.00333 1.00333 1.00333 1.00333 1.00333 1.00333
1.00333 1.00333 0.995 0.986666 0.986666 0.986666 0.986666 0.986666
0.97 0.953333 0.953333 0.953333 0.936666 0.936666 0.92 0.903333 0.853333
0.803333 0.736667 0.603333 0.536667 0.52 0.47 0.42 0.353334 0.345 0.336667
0.32 0.286667 0.27 0.253334 0.253334 0.236667 0.22 0.203334 0.186667
0.186667 0.17 0.17 0.153334 0.153334 0.153334 0.153334 0.136667 0.12
0.12 0.12 0.12 0.103334 0.103334 0.103334 0.103334 0.0950005 0.0866672
0.0866672 0.0866672 0.0783339 0.0700005 0.0700005 0.0700005 0.0700005
0.0533339 0.0366672 0.0366672 0.0366672 0.0366672 0.0366672 0.0366672
0.0366672 0.0366672 0.0366672 0.0366672 0.0366672;
14, 0.686667 0.636667 0.703333 0.72 0.736667 0.87 0.886666 0.903333
0.92 0.945 0.953333 0.97 0.97 0.97 0.986666 1.00333 1.00333 1.00333
1.00333 1.00333 1.00333 1.00333 1.00333 1.00333 1.00333 1.00333 1.00333
1.00333 1.00333 0.995 0.986666 0.986666 0.986666 0.986666 0.986666
0.97 0.953333 0.953333 0.953333 0.936666 0.936666 0.92 0.903333 0.853333
0.803333 0.736667 0.603333 0.536667 0.52 0.47 0.42 0.353334 0.345 0.336667
0.32 0.286667 0.27 0.253334 0.253334 0.236667 0.22 0.203334 0.186667
0.186667 0.17 0.17 0.153334 0.153334 0.153334 0.153334 0.136667 0.12
0.12 0.12 0.12 0.103334 0.103334 0.103334 0.103334 0.0950005 0.0866672
0.0866672 0.0866672 0.0783339 0.0700005 0.0700005 0.0700005 0.0700005
0.0533339 0.0366672 0.0366672 0.0366672 0.0366672 0.0366672 0.0366672
0.0366672 0.0366672 0.0366672 0.0366672 0.0366672;
