0, 0 17.4419 1 17.4419 0.466667 31.3953 0.15 33.7209 0;
1, 0 22.7907 0.15 42.093 1 14.186 0.933333 6.04651 0.783333 7.90698
0.466667 1.09441 0 5.88235 0;
2, 0 1.94262 1 21.1765 1 0 0 76.881 0;
3, 0 47.825 1 4.70589 0.666667 25.8824 0.1 21.5868 0;
4, 0 10 1 20 0.7 40 0.7 30 0;
