0, 0.35 0.540909 0.5 0.386364 0.5 0.518182 0.45 0.5 1 1 1 1 1 1 1
1;
1, 0.418182 0.404545 0.454545 0.5 0.5 0.429545 0.483409 0.425 1 1
1 1 1 1 1 1;
2, 0.440909 0.472727 0.454545 0.522727 0.522727 0.429545 0.551591
0.493182 1 0 1 1 0 1 0 1;
3, 0.486364 0.336364 0.454545 0.477273 0.522727 0.543182 0.551591
0.493182 1 1 0 0 1 0 1 1;
