0, 55 kick 0.859375 0.34375 0 0 0.4375 0.359375 0 0;
1, 65.4064 rockit 0.859375 0.5625 0 0 0.4375 0.359375 0 0;
2, 65.4064 electronica 0.59375 0.625 0.78125 0.265625 0.28125 0.765625
0 0;
3, 43.6535 sub 0.265625 0.453125 0 0.296875 0.640625 0.265625 0 0
;
4, 43.6535 techno 0.6875 0.71875 0 0 0.484375 0.265625 0 0;
5, 48.9994 beltram 0.34375 0.828125 0.484375 0.140625 0.484375 0.890625
0 0;
6, 55 tresor 0.71875 0.71875 0.578125 0 0.5 0.890625 0 0;
7, 55 hardkick 0.96875 0.796875 0.484375 0 0.34375 0.890625 0 0;
8, 55 hardcore 0.96875 0.796875 0.75 0.90625 0.34375 0.890625 0 0
;
9, 55 digit 0.0625 0.796875 0.75 0.90625 0.34375 0.890625 0 0;
10, 55 short 0.25 1 1 0.671875 0.375 0.265625 0 0;
11, 43.6535 longpulse 0 1 0 0 1 0 0 0;
12, 43.6535 coldteck 0.734375 0.796875 0.6875 0.625 0.34375 0.1875
0 0;
