0, -0.0245412 0 0.0245412 0.0490676 0.0735645 0.0980171 0.122411 0.14673
0.170962 0.19509 0.219101 0.24298 0.266713 0.290284 0.313681 0.33689
0.359895 0.382683 0.405241 0.427555 0.449611 0.471396 0.492898 0.514102
0.534997 0.55557 0.575808 0.595699 0.615231 0.634393 0.653172 0.671558
0.68954 0.707106 0.724247 0.740951 0.757208 0.77301 0.788346 0.803207
0.817584 0.831469 0.844853 0.857728 0.870087 0.881921 0.893224 0.903989
0.914209 0.923879 0.932992 0.941544 0.949528 0.95694 0.963776 0.970031
0.975702 0.980785 0.985277 0.989176 0.992479 0.995185 0.99729 0.998795
0.999699 1 0.999699 0.998796 0.997291 0.995185 0.99248 0.989177 0.985278
0.980786 0.975702 0.970032 0.963776 0.956941 0.949529 0.941545 0.932993
0.92388 0.91421 0.90399 0.893225 0.881922 0.870088 0.85773 0.844855
0.831471 0.817586 0.803209 0.788348 0.773012 0.75721 0.740952 0.724248
0.707108 0.689542 0.67156 0.653174 0.634395 0.615233 0.595701 0.57581
0.555572 0.534999 0.514105 0.4929 0.471399 0.449613 0.427557 0.405243
0.382686 0.359897 0.336892 0.313684 0.290287 0.266715 0.242983 0.219104
0.195093 0.170964 0.146733 0.122413 0.0980197 0.0735671 0.0490703 0.0245439
2.65359e-06 -0.0245386 -0.049065 -0.0735619 -0.0980144 -0.122408 -0.146728
-0.170959 -0.195088 -0.219098 -0.242977 -0.26671 -0.290282 -0.313679
-0.336887 -0.359892 -0.382681 -0.405239 -0.427552 -0.449609 -0.471394
-0.492896 -0.5141 -0.534995 -0.555568 -0.575806 -0.595697 -0.615229
-0.634391 -0.65317 -0.671557 -0.689538 -0.707104 -0.724245 -0.740949
-0.757207 -0.773008 -0.788344 -0.803205 -0.817583 -0.831468 -0.844852
-0.857727 -0.870085 -0.88192 -0.893223 -0.903988 -0.914208 -0.923878
-0.932992 -0.941543 -0.949527 -0.956939 -0.963775 -0.97003 -0.975701
-0.980785 -0.985277 -0.989176 -0.992479 -0.995184 -0.99729 -0.998795
-0.999699 -1 -0.999699 -0.998796 -0.997291 -0.995185 -0.99248 -0.989177
-0.985278 -0.980786 -0.975703 -0.970032 -0.963777 -0.956942 -0.94953
-0.941545 -0.932994 -0.923881 -0.914212 -0.903991 -0.893226 -0.881923
-0.870089 -0.857731 -0.844856 -0.831472 -0.817587 -0.80321 -0.788349
-0.773013 -0.757212 -0.740954 -0.72425 -0.70711 -0.689544 -0.671562
-0.653176 -0.634397 -0.615235 -0.595703 -0.575812 -0.555574 -0.535002
-0.514107 -0.492902 -0.471401 -0.449616 -0.42756 -0.405246 -0.382688
-0.3599 -0.336895 -0.313687 -0.29029 -0.266718 -0.242985 -0.219106
-0.195095 -0.170967 -0.146736 -0.122416 -0.0980223 -0.0735698 -0.0490729
-0.0245465 -5.30718e-06 0.0245359;
1, -0.0189224 0 0.0189224 0.0373363 0.0548595 0.0713163 0.0867443
0.101337 0.115356 0.129054 0.142649 0.156335 0.170323 0.184864 0.20022
0.216601 0.234066 0.252459 0.271405 0.290383 0.308856 0.326415 0.342869
0.358266 0.372828 0.386852 0.400611 0.414314 0.428118 0.442185 0.456724
0.471994 0.488231 0.505545 0.523829 0.54273 0.561713 0.580202 0.597751
0.614165 0.629524 0.64411 0.658269 0.672272 0.686261 0.700274 0.714358
0.728673 0.743534 0.759332 0.776373 0.794684 0.813909 0.83335 0.852175
0.869719 0.885751 0.900577 0.914907 0.929521 0.944838 0.960576 0.975652
0.988386 0.996966 1 0.996967 0.988387 0.975653 0.960577 0.944839 0.929523
0.914909 0.900578 0.885753 0.869721 0.852177 0.833352 0.813911 0.794686
0.776375 0.759334 0.743535 0.728675 0.71436 0.700276 0.686262 0.672274
0.65827 0.644112 0.629526 0.614167 0.597753 0.580204 0.561715 0.542732
0.523831 0.505546 0.488232 0.471996 0.456726 0.442186 0.428119 0.414316
0.400613 0.386854 0.37283 0.358267 0.342871 0.326417 0.308858 0.290385
0.271407 0.252461 0.234068 0.216603 0.200222 0.184865 0.170325 0.156337
0.14265 0.129056 0.115357 0.101339 0.0867459 0.071318 0.0548614 0.0373382
0.0189245 2.0555e-06 -0.0189204 -0.0373343 -0.0548577 -0.0713146 -0.0867427
-0.101336 -0.115354 -0.129053 -0.142648 -0.156334 -0.170322 -0.184862
-0.200218 -0.216599 -0.234064 -0.252457 -0.271403 -0.290381 -0.308854
-0.326413 -0.342867 -0.358264 -0.372827 -0.386851 -0.40061 -0.414313
-0.428116 -0.442183 -0.456723 -0.471993 -0.488229 -0.505543 -0.523827
-0.542728 -0.561711 -0.5802 -0.59775 -0.614163 -0.629522 -0.644109
-0.658267 -0.672271 -0.686259 -0.700273 -0.714356 -0.728672 -0.743532
-0.75933 -0.776371 -0.794682 -0.813907 -0.833348 -0.852173 -0.869717
-0.88575 -0.900575 -0.914906 -0.929519 -0.944836 -0.960574 -0.97565
-0.988385 -0.996966 -1 -0.996967 -0.988389 -0.975655 -0.960579 -0.944841
-0.929524 -0.91491 -0.90058 -0.885755 -0.869723 -0.852179 -0.833354
-0.813913 -0.794688 -0.776377 -0.759335 -0.743537 -0.728676 -0.714361
-0.700277 -0.686264 -0.672275 -0.658272 -0.644113 -0.629527 -0.614169
-0.597755 -0.580206 -0.561717 -0.542734 -0.523833 -0.505548 -0.488234
-0.471998 -0.456728 -0.442188 -0.428121 -0.414317 -0.400614 -0.386855
-0.372831 -0.358269 -0.342872 -0.326418 -0.30886 -0.290387 -0.27141
-0.252463 -0.23407 -0.216604 -0.200223 -0.184867 -0.170327 -0.156338
-0.142652 -0.129057 -0.115359 -0.10134 -0.0867476 -0.0713198 -0.0548632
-0.0373402 -0.0189265 -4.111e-06 0.0189184;
2, -0.336773 0 0.336773 0.629629 0.844968 0.966942 0.999999 0.966006
0.897005 0.825923 0.777994 0.765302 0.785752 0.826314 0.869124 0.898222
0.904755 0.889117 0.85968 0.828901 0.808416 0.804917 0.818186 0.841798
0.866006 0.881606 0.88331 0.871428 0.851369 0.831282 0.818833 0.818343
0.829354 0.847055 0.86433 0.874565 0.87414 0.863673 0.847603 0.832346
0.823759 0.824927 0.835073 0.849983 0.863732 0.871017 0.869176 0.859146
0.845015 0.83237 0.826104 0.828544 0.838592 0.852218 0.864061 0.869533
0.866584 0.856466 0.84321 0.83203 0.827285 0.830789 0.841123 0.854203
0.864888 0.868985 0.864888 0.854204 0.841124 0.83079 0.827285 0.832029
0.843209 0.856465 0.866583 0.869533 0.864062 0.852219 0.838594 0.828544
0.826104 0.832369 0.845014 0.859144 0.869175 0.871018 0.863734 0.849984
0.835075 0.824928 0.823759 0.832344 0.847602 0.863671 0.874139 0.874565
0.864332 0.847058 0.829356 0.818344 0.818832 0.831281 0.851366 0.871426
0.883309 0.881607 0.866008 0.841801 0.818188 0.804917 0.808415 0.828898
0.859677 0.889115 0.904754 0.898224 0.869128 0.826319 0.785755 0.765303
0.777991 0.825917 0.896997 0.965999 0.999999 0.96695 0.844987 0.629657
0.336808 3.72419e-05 -0.336739 -0.629601 -0.84495 -0.966934 -1 -0.966012
-0.897013 -0.82593 -0.777997 -0.765302 -0.785748 -0.826309 -0.869119
-0.89822 -0.904756 -0.88912 -0.859684 -0.828904 -0.808417 -0.804916
-0.818184 -0.841796 -0.866004 -0.881605 -0.883311 -0.87143 -0.851371
-0.831284 -0.818834 -0.818343 -0.829352 -0.847053 -0.864328 -0.874564
-0.87414 -0.863674 -0.847605 -0.832347 -0.823759 -0.824927 -0.835072
-0.849981 -0.863731 -0.871017 -0.869176 -0.859147 -0.845017 -0.832371
-0.826105 -0.828543 -0.838591 -0.852216 -0.86406 -0.869533 -0.866585
-0.856468 -0.843212 -0.832031 -0.827285 -0.830788 -0.841121 -0.854202
-0.864887 -0.868985 -0.864889 -0.854206 -0.841125 -0.830791 -0.827285
-0.832029 -0.843208 -0.856464 -0.866583 -0.869533 -0.864063 -0.852221
-0.838595 -0.828545 -0.826104 -0.832368 -0.845012 -0.859143 -0.869174
-0.871018 -0.863735 -0.849986 -0.835076 -0.824929 -0.823758 -0.832343
-0.8476 -0.86367 -0.874138 -0.874566 -0.864333 -0.847059 -0.829357
-0.818344 -0.818832 -0.831279 -0.851364 -0.871424 -0.883309 -0.881608
-0.866011 -0.841804 -0.818191 -0.804918 -0.808413 -0.828895 -0.859673
-0.889112 -0.904754 -0.898226 -0.869132 -0.826324 -0.785759 -0.765303
-0.777987 -0.82591 -0.896989 -0.965993 -0.999998 -0.966958 -0.845005
-0.629685 -0.336843 -7.44838e-05 0.336704;
3, -0.335073 0 0.335073 0.627154 0.843003 0.966245 1 0.964457 0.890312
0.810073 0.749783 0.7234 0.731182 0.762127 0.799343 0.826418 0.832754
0.816324 0.783276 0.744862 0.712986 0.695998 0.696126 0.709283 0.727076
0.740161 0.741652 0.729387 0.706347 0.679208 0.655678 0.641636 0.639126
0.645852 0.656278 0.66383 0.663357 0.652933 0.63439 0.612455 0.592873
0.580243 0.576387 0.579801 0.586358 0.590944 0.589384 0.579952 0.563907
0.544918 0.527614 0.515834 0.511231 0.512734 0.517035 0.519891 0.517728
0.508947 0.494463 0.477287 0.461346 0.449999 0.444798 0.444961 0.447727
0.44943 0.446895 0.438609 0.425243 0.409353 0.394381 0.383349 0.377736
0.376963 0.378648 0.379535 0.376731 0.368783 0.356192 0.341195 0.326892
0.316068 0.310159 0.30873 0.309672 0.310018 0.307069 0.299404 0.287396
0.273046 0.259207 0.248506 0.242353 0.240432 0.240834 0.240801 0.237767
0.230325 0.218742 0.204842 0.191307 0.180653 0.174291 0.172 0.172025
0.171753 0.168703 0.161456 0.150189 0.136592 0.123223 0.112536 0.10596
0.103361 0.103105 0.102683 0.0996599 0.0925955 0.0815842 0.0682136
0.054959 0.0442455 0.0375311 0.0347582 0.034378 0.0339389 0.0310147
0.0241218 0.0132794 1.48308e-06 -0.0132767 -0.0241198 -0.0310136 -0.0339386
-0.034378 -0.0347579 -0.0375301 -0.0442436 -0.0549564 -0.0682107 -0.0815815
-0.0925935 -0.0996589 -0.102683 -0.103105 -0.10336 -0.105959 -0.112535
-0.12322 -0.136589 -0.150186 -0.161454 -0.168701 -0.171753 -0.172025
-0.172 -0.17429 -0.180651 -0.191304 -0.204839 -0.218739 -0.230323 -0.237766
-0.240801 -0.240834 -0.240432 -0.242353 -0.248504 -0.259205 -0.273042
-0.287393 -0.299402 -0.307067 -0.310018 -0.309673 -0.30873 -0.310158
-0.316066 -0.326889 -0.341192 -0.356189 -0.368781 -0.37673 -0.379535
-0.378648 -0.376963 -0.377735 -0.383347 -0.394378 -0.40935 -0.42524
-0.438607 -0.446894 -0.44943 -0.447727 -0.444962 -0.444797 -0.449997
-0.461343 -0.477283 -0.49446 -0.508945 -0.517727 -0.519892 -0.517036
-0.512735 -0.511231 -0.515832 -0.527611 -0.544914 -0.563903 -0.579949
-0.589383 -0.590944 -0.58636 -0.579802 -0.576387 -0.580242 -0.592869
-0.612451 -0.634385 -0.65293 -0.663356 -0.663831 -0.65628 -0.645854
-0.639127 -0.641634 -0.655674 -0.679203 -0.706341 -0.729383 -0.741651
-0.740163 -0.72708 -0.709287 -0.696128 -0.695996 -0.712981 -0.744854
-0.783267 -0.816318 -0.832753 -0.826422 -0.799351 -0.762135 -0.731187
-0.723398 -0.749773 -0.810057 -0.890294 -0.964444 -0.999999 -0.966262
-0.84304 -0.62721 -0.335142 -7.40782e-05 0.335004;
4, 1 0.992278 0.984556 0.976834 0.969112 0.96139 0.953668 0.945946
0.938224 0.930502 0.92278 0.915058 0.907336 0.899614 0.891892 0.88417
0.876448 0.868726 0.861004 0.853282 0.84556 0.837838 0.830116 0.822394
0.814672 0.80695 0.799228 0.791506 0.783784 0.776062 0.76834 0.760618
0.752896 0.745174 0.737452 0.72973 0.722008 0.714286 0.706564 0.698842
0.69112 0.683398 0.675676 0.667954 0.660232 0.65251 0.644788 0.637066
0.629344 0.621622 0.6139 0.606178 0.598456 0.590734 0.583012 0.57529
0.567568 0.559846 0.552124 0.544402 0.53668 0.528957 0.521236 0.513514
0.505792 0.49807 0.490348 0.482625 0.474903 0.467181 0.459459 0.451737
0.444015 0.436293 0.428571 0.420849 0.413127 0.405405 0.397683 0.389961
0.382239 0.374517 0.366795 0.359073 0.351351 0.343629 0.335907 0.328185
0.320463 0.312741 0.305019 0.297297 0.289575 0.281853 0.274131 0.266409
0.258687 0.250965 0.243243 0.235521 0.227799 0.220077 0.212355 0.204633
0.196911 0.189189 0.181467 0.173745 0.166023 0.158301 0.150579 0.142857
0.135135 0.127413 0.119691 0.111969 0.104247 0.0965251 0.0888031 0.0810811
0.0733591 0.0656371 0.057915 0.0501931 0.0424711 0.034749 0.027027
0.019305 0.011583 0.00386101 -0.00386095 -0.011583 -0.019305 -0.027027
-0.034749 -0.0424711 -0.0501931 -0.0579151 -0.0656371 -0.0733591 -0.081081
-0.0888031 -0.0965251 -0.104247 -0.111969 -0.119691 -0.127413 -0.135135
-0.142857 -0.150579 -0.158301 -0.166023 -0.173745 -0.181467 -0.189189
-0.196911 -0.204633 -0.212355 -0.220077 -0.227799 -0.235521 -0.243243
-0.250965 -0.258687 -0.266409 -0.274131 -0.281853 -0.289575 -0.297297
-0.305019 -0.312741 -0.320463 -0.328185 -0.335907 -0.343629 -0.351351
-0.359073 -0.366795 -0.374517 -0.382239 -0.389961 -0.397683 -0.405405
-0.413127 -0.420849 -0.428571 -0.436293 -0.444016 -0.451737 -0.459459
-0.467181 -0.474903 -0.482625 -0.490348 -0.49807 -0.505792 -0.513514
-0.521235 -0.528957 -0.53668 -0.544402 -0.552124 -0.559846 -0.567568
-0.57529 -0.583012 -0.590734 -0.598456 -0.606178 -0.6139 -0.621622
-0.629344 -0.637066 -0.644788 -0.65251 -0.660232 -0.667954 -0.675676
-0.683398 -0.69112 -0.698842 -0.706564 -0.714286 -0.722008 -0.72973
-0.737452 -0.745174 -0.752896 -0.760618 -0.76834 -0.776062 -0.783784
-0.791506 -0.799228 -0.80695 -0.814672 -0.822394 -0.830116 -0.837838
-0.84556 -0.853282 -0.861004 -0.868726 -0.876448 -0.88417 -0.891892
-0.899614 -0.907336 -0.915058 -0.92278 -0.930502 -0.938224 -0.945946
-0.953668 -0.96139 -0.969112 -0.976834 -0.984556 -0.992278;
5, 0.769045 0.769045 0.769045 0.769045 0.769045 0.769045 0.769045
0.754759 0.747616 0.740473 0.740473 0.740473 0.733331 0.711902 0.711902
0.697616 0.683331 0.683331 0.669045 0.654759 0.640474 0.635712 0.63095
0.611902 0.611902 0.583331 0.576188 0.569045 0.55476 0.497617 0.490474
0.45476 0.326189 0.316665 0.307141 0.126189 0.0976177 0.040475 0.0261893
0.0119036 -0.0023821 -0.0166678 -0.0738105 -0.095239 -0.116668 -0.130953
-0.188096 -0.216667 -0.22381 -0.230953 -0.288096 -0.302381 -0.309524
-0.316667 -0.316667 -0.316667 -0.32381 -0.330953 -0.330953 -0.330953
-0.330953 -0.330953 -0.330953 -0.330953 -0.330953 -0.330953 -0.330953
-0.330953 -0.330953 -0.330953 -0.330953 -0.330953 -0.330953 -0.330953
-0.326191 -0.321429 -0.316667 -0.309524 -0.302381 -0.27381 -0.230953
-0.195239 -0.102382 -0.0309535 0.0261893 0.040475 0.0976177 0.126189
0.183332 0.197617 0.211903 0.25476 0.283332 0.326189 0.340474 0.397617
0.426188 0.483331 0.483331 0.483331 0.483331 0.483331 0.483331 0.476188
0.45476 0.411903 0.407141 0.402379 0.297617 0.269046 -0.145239 -0.188096
-0.209525 -0.230953 -0.330953 -0.259524 -0.345239 -0.359524 -0.37381
-0.430953 -0.459524 -0.478572 -0.497619 -0.545238 -0.580952 -0.616666
-0.630952 -0.645238 -0.659524 -0.688095 -0.702381 -0.709523 -0.716666
-0.745238 -0.745238 -0.759523 -0.773809 -0.788095 -0.788095 -0.788095
-0.788095 -0.788095 -0.788095 -0.788095 -0.788095 -0.788095 -0.788095
-0.788095 -0.788095 -0.788095 -0.788095 -0.788095 -0.788095 -0.788095
-0.788095 -0.788095 -0.788095 -0.788095 -0.788095 -0.788095 -0.785238
-0.78238 -0.779523 -0.776666 -0.773809 -0.773809 -0.769047 -0.764285
-0.759523 -0.745238 -0.730952 -0.716666 -0.702381 -0.702381 -0.688095
-0.688095 -0.673809 -0.659524 -0.645238 -0.638095 -0.630952 -0.602381
-0.588095 -0.559524 -0.545238 -0.530952 -0.488095 -0.388096 -0.380953
-0.216667 -0.202382 -0.0309535 -0.0238106 0.0261893 0.0476178 0.0976177
0.240475 0.240475 0.240475 0.311903 0.340474 0.347617 0.383331 0.397617
0.426188 0.45476 0.461903 0.469045 0.497617 0.511903 0.519045 0.526188
0.540474 0.569045 0.540474 0.540474 0.540474 0.545236 0.549998 0.569045
0.583331 0.583331 0.588093 0.592855 0.597617 0.611902 0.626188 0.633331
0.640474 0.640474 0.640474 0.647617 0.654759 0.654759 0.669045 0.669045
0.683331 0.697616 0.711902 0.726188 0.726188 0.726188 0.740474 0.745235
0.749997 0.769045 0.769045 0.797616 0.797616 0.797616 0.797616 0.797616
0.797616 0.797616 0.797616 0.797616 0.797616 0.797616 0.797616;
6, 0.769045 0.769045 0.769045 0.769045 0.769045 0.769045 0.769045
0.754759 0.747616 0.740473 0.740473 0.740473 0.733331 0.711902 0.711902
0.697616 0.683331 0.683331 0.669045 0.126189 0.0976177 0.083332 0.0690463
0.0619035 0.0547606 0.0261893 -0.0119059 -0.0214297 -0.0309535 -0.0738105
-0.102382 -0.145239 -0.209525 -0.216667 -0.27381 -0.288096 -0.338096
-0.345239 -0.416667 -0.445238 -0.459524 -0.47381 -0.516667 -0.552381
-0.573809 -0.611905 -0.621428 -0.630952 -0.645238 -0.659524 -0.673809
-0.688095 -0.702381 -0.702381 -0.702381 -0.702381 -0.702381 -0.702381
-0.702381 -0.702381 -0.702381 -0.673809 -0.652381 -0.645238 -0.630952
-0.616666 -0.602381 -0.595238 -0.588095 -0.573809 -0.530952 -0.516667
-0.502381 -0.47381 -0.445238 -0.430953 -0.416667 -0.37381 -0.359524
-0.320239 -0.309524 -0.29881 -0.288096 -0.259524 -0.245239 -0.230953
-0.216667 -0.202382 -0.159525 -0.141668 -0.12381 -0.105953 -0.0880962
-0.0690486 -0.050001 -0.0309535 -0.0166678 -0.0023821 0.0119036 0.0261893
0.040475 0.0547606 0.0690463 0.083332 0.101189 0.119046 0.136903 0.15476
0.183332 0.20476 0.226189 0.247617 0.269046 0.340474 0.349998 0.359522
0.369046 0.45476 0.583331 0.683331 0.697616 0.754759 0.754759 0.754759
0.740473 0.740473 0.726188 0.711902 0.697616 0.697616 0.683331 0.669045
0.640474 0.640474 0.640474 0.626188 0.611902 0.590474 0.583331 0.55476
0.526188 0.519045 0.511903 0.497617 0.483331 0.426188 0.388093 0.378569
0.369046 0.340474 0.319046 0.311903 0.269046 0.183332 0.169046 0.15476
0.111903 0.0261893 -0.0023821 -0.0166678 -0.0309535 -0.052382 -0.0738105
-0.095239 -0.102382 -0.102382 -0.159525 -0.17381 -0.195239 -0.202382
-0.230953 -0.316667 -0.345239 -0.359524 -0.388096 -0.416667 -0.459524
-0.459524 -0.516667 -0.530952 -0.573809 -0.588095 -0.602381 -0.616666
-0.616666 -0.616666 -0.616666 -0.630952 -0.630952 -0.630952 -0.630952
-0.630952 -0.630952 -0.630952 -0.630952 -0.630952 -0.616666 -0.616666
-0.611905 -0.607143 -0.588095 -0.545238 -0.530952 -0.52381 -0.502381
-0.488095 -0.488095 -0.480953 -0.459524 -0.445238 -0.416667 -0.416667
-0.411905 -0.407143 -0.402381 -0.37381 -0.37381 -0.359524 -0.359524
-0.345239 -0.338096 -0.330953 -0.316667 -0.302381 -0.292858 -0.283334
-0.27381 -0.230953 -0.188096 -0.180953 -0.17381 -0.0880962 -0.0595248
-0.0595248 -0.0309535 0.0547606 0.083332 0.126189 0.133332 0.15476
0.183332 0.211903 0.219046 0.240475 0.25476 0.269046 0.283332 0.283332
0.283332 0.297617 0.311903 0.326189 0.340474 0.369046 0.397617 0.397617
0.397617 0.411903 0.45476;
7, 0.304754 0.238088 0.238088 0.238088 0.238088 0.238088 0.238088
0.238088 0.238088 0.238088 0.238088 0.238088 0.238088 0.231422 0.224755
0.218089 0.211422 0.204756 0.193645 0.182534 0.171423 0.154756 0.13809
0.126979 0.115868 0.104757 0.0214251 0.00475872 -0.0752401 -0.0885732
-0.101906 -0.115239 -0.128573 -0.173016 -0.184127 -0.195238 -0.206349
-0.21746 -0.228571 -0.27857 -0.295237 -0.306348 -0.317459 -0.32857
-0.345236 -0.361902 -0.439679 -0.45079 -0.461901 -0.461901 -0.461901
-0.461901 -0.461901 -0.461901 -0.461901 -0.461901 -0.461901 -0.461901
-0.461901 -0.461901 -0.461901 -0.461901 -0.461901 -0.461901 -0.461901
-0.461901 -0.461901 -0.461901 -0.461901 -0.461901 -0.445234 -0.428568
-0.417457 -0.406346 -0.395235 -0.384124 -0.373013 -0.361902 -0.345236
-0.32857 -0.321903 -0.315236 -0.30857 -0.301903 -0.295237 -0.273015
-0.250793 -0.228571 -0.211905 -0.195238 -0.0730179 -0.050796 -0.0285741
-0.00635223 0.0158697 0.0380915 0.054758 0.0714244 0.0825353 0.0936462
0.104757 0.13809 0.171423 0.182534 0.193645 0.204756 0.218089 0.231422
0.244755 0.258088 0.271421 0.282532 0.293643 0.304754 0.321421 0.37142
0.382531 0.393642 0.404753 0.404753 0.404753 0.393642 0.382531 0.37142
0.37142 0.37142 0.37142 0.354753 0.338087 0.338087 0.338087 0.338087
0.338087 0.338087 0.326976 0.315865 0.304754 0.293643 0.282532 0.271421
0.254755 0.238089 0.226978 0.215867 0.204756 0.188089 0.171423 0.160312
0.149201 -0.0952398 -0.106351 -0.117462 -0.228571 -0.245237 -0.261904
-0.273015 -0.284126 -0.295237 -0.295237 -0.295237 -0.306348 -0.317459
-0.32857 -0.345236 -0.361902 -0.361902 -0.361902 -0.361902 -0.361902
-0.361902 -0.361902 -0.361902 -0.361902 -0.373013 -0.384124 -0.395235
-0.411902 -0.428568 -0.428568 -0.428568 -0.428568 -0.428568 -0.428568
-0.428568 -0.428568 -0.428568 -0.428568 -0.428568 -0.428568 -0.428568
-0.428568 -0.428568 -0.428568 -0.428568 -0.428568 -0.428568 -0.428568
-0.428568 -0.428568 -0.428568 -0.428568 -0.428568 -0.428568 -0.428568
-0.428568 -0.428568 -0.428568 -0.428568 -0.428568 -0.428568 -0.428568
-0.428568 -0.428568 -0.428568 -0.428568 -0.411902 -0.395235 -0.384124
-0.373013 -0.361902 -0.361902 -0.361902 -0.361902 -0.361902 -0.361902
-0.361902 -0.361902 -0.361902 -0.345236 -0.32857 -0.315236 -0.301903
-0.28857 -0.275237 -0.261904 -0.250793 -0.239682 -0.228571 -0.221905
-0.215238 -0.208571 -0.201905 -0.195238 -0.188572 -0.181905 -0.175239
-0.168572 -0.161905 -0.150794 -0.139684 -0.128573 -0.117462 -0.106351
-0.0952398 -0.0785733 -0.0619069 -0.050796 -0.0396851 0.104757;
8, -0.980952 -0.966666 -0.95238 -0.945237 -0.938094 -0.923809 -0.880952
-0.871428 -0.861904 -0.85238 -0.823809 -0.766666 -0.759523 -0.752381
-0.738095 -0.695238 -0.688095 -0.680952 -0.623809 -0.595238 -0.57381
-0.552381 -0.538095 -0.52381 -0.466667 -0.459524 -0.42381 -0.409524
-0.395239 -0.388096 -0.338096 -0.238096 -0.228572 -0.219048 -0.209525
-0.195239 -0.180953 -0.152382 -0.152382 -0.152382 -0.138096 -0.0952392
-0.0880963 -0.0809535 -0.0238107 -0.014287 -0.00476317 0.00476062 0.0190463
0.0619034 0.0904747 0.0976176 0.10476 0.119046 0.133332 0.140475 0.147617
0.161903 0.161903 0.176189 0.190475 0.261903 0.261903 0.261903 0.261903
0.261903 0.261903 0.261903 0.261903 0.261903 0.261903 0.261903 0.261903
0.261903 0.261903 0.261903 0.261903 0.261903 0.261903 0.261903 0.261903
0.261903 0.261903 0.261903 0.261903 0.261903 0.261903 0.261903 0.261903
0.261903 0.261903 0.257141 0.252379 0.247617 0.247617 0.247617 0.247617
0.247617 0.247617 0.247617 0.247617 0.247617 0.233332 0.233332 0.226189
0.219046 0.20476 0.147617 0.140475 0.133332 0.10476 0.0476177 0.033332
0.0190463 -0.0523821 -0.0666678 -0.0809535 -0.0880963 -0.0952392 -0.123811
-0.138096 -0.145239 -0.152382 -0.166668 -0.166668 -0.166668 -0.17381
-0.180953 -0.195239 -0.209525 -0.209525 -0.209525 -0.209525 -0.209525
-0.209525 -0.209525 -0.209525 -0.209525 -0.209525 -0.209525 -0.209525
-0.209525 -0.209525 -0.209525 -0.209525 -0.209525 -0.209525 -0.202382
-0.195239 -0.195239 -0.195239 -0.180953 -0.180953 -0.180953 -0.152382
-0.138096 -0.130953 -0.123811 -0.116668 -0.109525 -0.0952392 -0.0904773
-0.0857154 -0.0809535 -0.0523821 -0.0452393 -0.0380964 -0.0238107 -0.014287
-0.00476317 0.00476062 0.0190463 0.033332 0.0476177 0.0571415 0.0666653
0.0904747 0.10476 0.111903 0.119046 0.119046 0.119046 0.119046 0.119046
0.119046 0.119046 0.115475 0.111903 0.108332 0.10476 0.0904747 0.0833319
0.076189 0.0619034 0.0619034 0.0476177 0.0404748 0.0190463 0.00476062
-0.0238107 -0.0309536 -0.0380964 -0.0523821 -0.123811 -0.238096 -0.245239
-0.266667 -0.280953 -0.295239 -0.302382 -0.309524 -0.309524 -0.32381
-0.32381 -0.32381 -0.32381 -0.330953 -0.338096 -0.345239 -0.352381
-0.352381 -0.352381 -0.359524 -0.366667 -0.366667 -0.366667 -0.366667
-0.366667 -0.366667 -0.366667 -0.380953 -0.380953 -0.380953 -0.380953
-0.395239 -0.402381 -0.409524 -0.452381 -0.480953 -0.495238 -0.502381
-0.509524 -0.566667 -0.638095 -0.645238 -0.652381 -0.680952 -0.766666
-0.773809 -0.866666 -0.880952 -0.909523 -0.923809 -0.930952 -0.938094
-0.95238 -0.95238 -0.959523 -1.02381;
9, -0.980952 -0.966666 -0.90238 -0.90238 -0.816666 -0.809523 -0.788095
-0.745237 -0.70238 -0.688095 -0.673809 -0.659523 -0.588095 -0.502381
-0.495238 -0.430952 -0.402381 -0.316667 -0.309524 -0.245239 -0.230953
-0.17381 -0.145239 -0.138096 -0.088096 -0.0166676 0.0547608 0.0619037
0.0833322 0.126189 0.183332 0.197618 0.211903 0.226189 0.25476 0.264284
0.273808 0.283332 0.297617 0.311903 0.311903 0.311903 0.311903 0.311903
0.316665 0.321427 0.326189 0.340474 0.340474 0.340474 0.340474 0.35476
0.35476 0.35476 0.35476 0.35476 0.35476 0.35476 0.35476 0.35476 0.35476
0.35476 0.297617 0.297617 0.283332 0.283332 0.269046 0.269046 0.269046
0.269046 0.269046 0.269046 0.269046 0.269046 0.269046 0.27857 0.288094
0.297617 0.297617 0.311903 0.311903 0.311903 0.326189 0.326189 0.326189
0.326189 0.326189 0.326189 0.340474 0.340474 0.340474 0.340474 0.340474
0.347617 0.35476 0.35476 0.35476 0.35476 0.35476 0.35476 0.35476 0.35476
0.35476 0.35476 0.35476 0.340474 0.311903 0.297617 0.283332 0.276189
0.269046 0.261903 0.25476 0.226189 0.211903 0.173808 0.164284 0.154761
0.140475 0.119046 0.111904 0.0976179 0.0833322 0.0690465 0.0619037
0.0547608 0.0547608 0.0404751 0.0333323 0.0261894 0.0261894 0.0119038
-0.00238192 -0.0380961 -0.045239 -0.045239 -0.045239 -0.045239 -0.045239
-0.045239 -0.045239 -0.045239 -0.045239 -0.045239 -0.045239 -0.045239
-0.045239 -0.045239 -0.0309533 -0.0309533 -0.0238104 -0.0166676 -0.00238192
0.0119038 0.0119038 0.0119038 0.0190466 0.0261894 0.0404751 0.045237
0.0499989 0.0547608 0.0547608 0.0619037 0.0690465 0.0833322 0.0833322
0.0833322 0.0833322 0.0833322 0.0833322 0.0833322 0.0833322 0.0833322
0.0833322 0.0833322 0.0833322 0.0833322 0.0690465 0.0690465 0.0547608
0.047618 0.0404751 0.0119038 -0.0166676 -0.0523818 -0.0595247 -0.0738103
-0.088096 -0.145239 -0.180953 -0.188096 -0.202381 -0.216667 -0.22381
-0.230953 -0.245239 -0.245239 -0.245239 -0.245239 -0.245239 -0.245239
-0.245239 -0.245239 -0.245239 -0.245239 -0.245239 -0.238096 -0.230953
-0.216667 -0.202381 -0.188096 -0.184524 -0.180953 -0.177382 -0.17381
-0.166667 -0.159524 -0.152382 -0.145239 -0.145239 -0.145239 -0.145239
-0.145239 -0.145239 -0.145239 -0.145239 -0.159524 -0.17381 -0.180953
-0.188096 -0.202381 -0.202381 -0.216667 -0.238096 -0.245239 -0.27381
-0.288096 -0.295238 -0.302381 -0.316667 -0.516667 -0.595238 -0.602381
-0.745237 -0.773809 -0.788095 -0.85238 -0.859523 -0.930951 -0.959523
-0.980951 -0.988094 -0.988094 -0.988094 -0.988094 -0.988094 -0.988094
-0.988094;
10, -0.845237 -0.835714 -0.82619 -0.788095 -0.759523 -0.745237 -0.730952
-0.716666 -0.688095 -0.602381 -0.595238 -0.559524 -0.516667 -0.473809
-0.466667 -0.416667 -0.345238 -0.316667 -0.27381 -0.266667 -0.245239
-0.202381 -0.116667 -0.109525 -0.102382 -0.0833341 -0.0642866 0.0119038
0.0190466 0.0261894 0.0404751 0.0547608 0.0690465 0.0833322 0.0976179
0.140475 0.147618 0.154761 0.169046 0.211903 0.226189 0.233332 0.240475
0.269046 0.273808 0.27857 0.297617 0.311903 0.35476 0.361903 0.369046
0.397617 0.411903 0.421427 0.43095 0.440474 0.45476 0.469046 0.476188
0.483331 0.497617 0.511903 0.526188 0.526188 0.526188 0.540474 0.55476
0.559522 0.564284 0.569045 0.583331 0.590474 0.597617 0.597617 0.611902
0.611902 0.611902 0.611902 0.611902 0.611902 0.619045 0.626188 0.626188
0.626188 0.626188 0.626188 0.65476 0.669045 0.683331 0.683331 0.683331
0.697617 0.697617 0.697617 0.697617 0.697617 0.697617 0.697617 0.697617
0.697617 0.697617 0.697617 0.697617 0.697617 0.697617 0.697617 0.683331
0.661902 0.65476 0.626188 0.611902 0.60476 0.597617 0.597617 0.583331
0.583331 0.583331 0.569045 0.55476 0.540474 0.519046 0.511903 0.497617
0.45476 0.447617 0.440474 0.426189 0.397617 0.369046 0.340474 0.326189
0.25476 0.240475 0.147618 0.140475 0.0261894 -0.0738103 -0.12381 -0.130953
-0.145239 -0.259524 -0.302381 -0.309524 -0.316667 -0.316667 -0.330953
-0.338095 -0.345238 -0.359524 -0.37381 -0.380953 -0.388095 -0.402381
-0.416667 -0.430952 -0.435714 -0.440476 -0.445238 -0.459524 -0.466667
-0.473809 -0.488095 -0.502381 -0.516667 -0.516667 -0.516667 -0.516667
-0.521428 -0.52619 -0.530952 -0.545238 -0.545238 -0.552381 -0.559524
-0.573809 -0.588095 -0.602381 -0.609523 -0.616666 -0.630952 -0.645238
-0.65 -0.654761 -0.659523 -0.666666 -0.673809 -0.680952 -0.688095 -0.688095
-0.692857 -0.697618 -0.70238 -0.716666 -0.730952 -0.735714 -0.740476
-0.745237 -0.745237 -0.745237 -0.75238 -0.759523 -0.773809 -0.773809
-0.783333 -0.792856 -0.80238 -0.80238 -0.816666 -0.820237 -0.823809
-0.82738 -0.830951 -0.835713 -0.840475 -0.845237 -0.845237 -0.854761
-0.864285 -0.873809 -0.888094 -0.888094 -0.888094 -0.888094 -0.888094
-0.888094 -0.888094 -0.888094 -0.90238 -0.90238 -0.90238 -0.90238 -0.90238
-0.916666 -0.930951 -0.934523 -0.938094 -0.941666 -0.945237 -0.945237
-0.945237 -0.959523 -0.959523 -0.959523 -0.959523 -0.959523 -0.959523
-0.959523 -0.959523 -0.959523 -0.959523 -0.959523 -0.959523 -0.959523
-0.959523 -0.959523 -0.959523 -0.959523 -0.959523 -0.959523;
11, -0.845237 -0.835714 -0.82619 -0.788095 -0.759523 -0.745237 -0.730952
-0.716666 -0.688095 -0.602381 -0.595238 -0.559524 -0.516667 -0.473809
-0.466667 -0.416667 -0.345238 -0.316667 -0.27381 -0.266667 -0.245239
-0.202381 -0.116667 -0.109525 -0.102382 -0.0833341 -0.0642866 0.0119038
0.0190466 0.0261894 0.0404751 0.0547608 0.0690465 0.0833322 0.0976179
0.140475 0.147618 0.154761 0.169046 0.211903 0.226189 0.233332 0.240475
0.269046 0.273808 0.27857 0.297617 0.311903 0.35476 0.361903 0.369046
0.397617 0.411903 0.421427 0.43095 0.440474 0.45476 0.469046 0.476188
0.483331 0.497617 0.511903 0.526188 0.526188 0.526188 0.540474 0.55476
0.559522 0.564284 0.569045 0.583331 0.590474 0.597617 0.597617 0.611902
0.611902 0.611902 0.611902 0.611902 0.611902 0.619045 0.626188 0.626188
0.626188 0.626188 0.626188 0.65476 0.669045 0.683331 0.683331 0.683331
0.697617 0.697617 0.697617 0.697617 0.697617 0.697617 0.697617 0.697617
0.697617 0.697617 0.697617 0.697617 0.697617 0.697617 0.697617 0.683331
0.661902 0.65476 0.626188 0.611902 0.60476 0.597617 0.597617 0.583331
0.583331 0.583331 0.569045 0.55476 0.540474 0.519046 0.511903 0.497617
0.45476 0.447617 0.440474 0.426189 0.397617 0.369046 0.340474 0.326189
0.25476 0.240475 0.147618 0.140475 0.0261894 -0.0738103 -0.12381 -0.130953
-0.145239 -0.459524 -0.459524 -0.459524 -0.459524 -0.473809 -0.488095
-0.495238 -0.502381 -0.516666 -0.545238 -0.552381 -0.559523 -0.573809
-0.588095 -0.595238 -0.616666 -0.630952 -0.645237 -0.659523 -0.666666
-0.673809 -0.673809 -0.688094 -0.695237 -0.70238 -0.70238 -0.716666
-0.721428 -0.72619 -0.730952 -0.730952 -0.730952 -0.730952 -0.730952
-0.730952 -0.735713 -0.740475 -0.745237 -0.745237 -0.745237 -0.745237
-0.745237 -0.745237 -0.745237 -0.745237 -0.745237 -0.745237 -0.745237
-0.745237 -0.745237 -0.745237 -0.745237 -0.730952 -0.730952 -0.721428
-0.711904 -0.70238 -0.745237 -0.745237 -0.75238 -0.759523 -0.773809
-0.773809 -0.783333 -0.792856 -0.80238 -0.80238 -0.816666 -0.820237
-0.823809 -0.82738 -0.830951 -0.835713 -0.840475 -0.845237 -0.845237
-0.854761 -0.864285 -0.873809 -0.888094 -0.888094 -0.888094 -0.888094
-0.888094 -0.888094 -0.888094 -0.888094 -0.90238 -0.90238 -0.90238
-0.90238 -0.90238 -0.916666 -0.930951 -0.934523 -0.938094 -0.941666
-0.945237 -0.945237 -0.945237 -0.959523 -0.959523 -0.959523 -0.959523
-0.959523 -0.959523 -0.959523 -0.959523 -0.959523 -0.959523 -0.959523
-0.959523 -0.959523 -0.959523 -0.959523 -0.959523 -0.959523 -0.959523
-0.959523;
12, -0.845237 -0.835714 -0.82619 -0.788095 -0.759523 -0.745237 -0.730952
-0.716666 -0.688095 -0.602381 -0.0880965 -0.109525 -0.130954 -0.288096
-0.302382 -0.330953 -0.338096 -0.37381 0.111903 0.126189 0.133332 0.140474
0.169046 0.183331 0.190474 0.197617 0.211903 0.226189 0.240474 0.245236
0.249998 0.25476 0.269046 0.269046 0.269046 0.283331 0.297617 0.307141
0.316665 0.326188 0.326188 0.326188 0.326188 0.326188 0.340474 0.340474
0.347617 0.35476 0.35476 0.369045 0.383331 0.390474 0.397617 0.397617
0.397617 0.40476 0.411902 0.411902 0.419045 0.426188 0.43095 0.435712
0.440474 0.454759 0.459521 0.464283 0.469045 0.472617 0.476188 0.479759
0.483331 0.497617 0.497617 0.497617 0.497617 0.497617 0.502378 0.50714
0.511902 0.511902 0.511902 0.511902 0.511902 0.511902 0.526188 0.529759
0.533331 0.536902 0.540473 0.540474 0.540474 0.540474 0.540474 0.540474
0.540474 0.540474 0.540474 0.540474 0.540474 0.526189 0.519046 0.511903
0.511903 0.511903 0.511903 0.511903 0.511903 0.511903 0.511903 0.511903
0.511903 0.511903 0.511903 0.511903 0.511903 0.511903 0.511903 0.507141
0.502379 0.497617 0.497617 0.497617 0.497617 0.497617 0.497617 0.497617
0.497617 0.497617 0.497617 0.497617 0.497617 0.490474 0.483332 0.469046
0.469046 0.469046 0.469046 0.469046 0.469046 0.45476 0.45476 0.45476
0.440475 0.440475 0.440475 0.440475 0.426189 0.411903 0.397617 0.397617
0.397617 0.397617 0.383332 0.376189 0.369046 0.35476 0.340475 0.333332
0.326189 0.311903 0.311903 0.297618 0.290475 0.283332 0.269046 0.240475
0.233332 0.226189 0.211904 0.197618 0.169047 0.147618 0.140475 0.126189
0.10238 0.0928562 0.0833324 0.0690467 0.011904 -0.00952452 -0.0166674
-0.0452387 -0.0595244 -0.130953 -0.195238 -0.202381 -0.230953 -0.254762
-0.264286 -0.27381 -0.330952 -0.345238 -0.373809 -0.380952 -0.388095
-0.416667 -0.430952 -0.466666 -0.473809 -0.488095 -0.502381 -0.509523
-0.516666 -0.559523 -0.573809 -0.60238 -0.609523 -0.616666 -0.630952
-0.659523 -0.666666 -0.673809 -0.688094 -0.70238 -0.716666 -0.75238
-0.759523 -0.773809 -0.773809 -0.773809 -0.773809 -0.788094 -0.807142
-0.811904 -0.816666 -0.830951 -0.838094 -0.845237 -0.85238 -0.859523
-0.873808 -0.888094 -0.895237 -0.90238 -0.90238 -0.916665 -0.923808
-0.930951 -0.945237 -0.959522 -0.959522 -0.959522 -0.959522 -0.973808
-0.973808 -0.973808 -0.973808 -0.973808 -0.973808 -0.973808 -0.973808
-0.973808 -0.988094 -0.988094 -0.988094 -0.988094 -0.988094 -1.00238
-0.959523;
13, -0.845237 -0.835714 -0.82619 -0.788095 -0.759523 -0.745237 -0.730952
-0.716666 -0.688095 -0.602381 -0.0880965 -0.109525 -0.130954 -0.288096
-0.302382 -0.330953 -0.338096 -0.37381 0.111903 0.126189 0.133332 0.140474
0.169046 0.183331 0.190474 0.197617 0.211903 0.226189 0.240474 0.245236
0.249998 0.25476 0.269046 0.269046 0.269046 0.283331 0.297617 0.307141
0.316665 0.326188 0.326188 0.326188 0.326188 0.326188 0.340474 0.340474
0.347617 0.35476 0.35476 0.369045 0.383331 0.390474 0.397617 0.397617
0.397617 0.40476 0.411902 0.411902 0.419045 0.426188 0.43095 0.435712
0.440474 0.454759 0.459521 0.464283 0.469045 0.472617 0.476188 0.469045
0.45476 0.449998 0.445236 0.411903 0.297617 0.311903 0.326188 0.333331
0.340474 0.35476 0.369046 0.376188 0.383331 0.411903 0.426188 0.433331
0.440474 0.35476 0.197617 0.483331 0.540474 0.540474 0.540474 0.540474
0.540474 0.540474 0.540474 0.540474 0.540474 0.526189 0.519046 0.511903
0.511903 0.511903 0.511903 0.511903 0.511903 0.511903 0.511903 0.511903
0.511903 0.511903 0.511903 0.511903 0.511903 0.511903 0.511903 0.507141
0.492855 0.492855 0.492855 0.307141 0.307141 0.307141 0.307141 0.307141
0.307141 0.307141 0.299999 0.292856 0.497617 0.490474 0.483332 0.469046
0.469046 0.469046 0.469046 0.469046 0.469046 0.45476 0.45476 0.45476
0.440475 0.440475 0.440475 0.440475 0.426189 0.411903 0.397617 0.397617
0.397617 0.397617 0.383332 0.376189 0.369046 0.35476 0.340475 0.333332
0.326189 0.311903 0.311903 0.297618 0.290475 0.283332 0.269046 0.240475
0.233332 0.226189 0.211904 0.197618 0.169047 0.147618 0.140475 0.126189
0.10238 0.0928562 0.0833324 0.0690467 0.011904 -0.00952452 -0.0166674
-0.0452387 -0.0595244 -0.130953 -0.195238 -0.202381 -0.230953 -0.254762
-0.264286 -0.27381 -0.330952 -0.345238 -0.373809 -0.380952 -0.388095
-0.416667 -0.430952 -0.466666 -0.473809 -0.488095 -0.502381 -0.509523
-0.516666 -0.559523 -0.573809 -0.60238 -0.609523 -0.616666 -0.630952
-0.659523 -0.666666 -0.673809 -0.688094 -0.70238 -0.716666 -0.75238
-0.759523 -0.773809 -0.773809 -0.773809 -0.773809 -0.788094 -0.807142
-0.811904 -0.816666 -0.830951 -0.838094 -0.845237 -0.85238 -0.859523
-0.873808 -0.888094 -0.895237 -0.90238 -0.90238 -0.916665 -0.923808
-0.930951 -0.945237 -0.959522 -0.959522 -0.959522 -0.959522 -0.973808
-0.973808 -0.973808 -0.973808 -0.973808 -0.973808 -0.973808 -0.973808
-0.973808 -0.988094 -0.988094 -0.988094 -0.988094 -0.988094 -1.00238
-0.959523;
14, -0.845237 -0.835714 -0.82619 -0.788095 -0.759523 -0.745237 -0.730952
-0.716666 -0.688095 -0.602381 -0.0880965 -0.109525 -0.130954 -0.288096
-0.302382 -0.330953 -0.338096 -0.37381 0.111903 0.126189 0.133332 0.140474
0.169046 0.183331 0.190474 0.197617 0.211903 0.226189 0.240474 0.245236
0.249998 0.25476 0.269046 0.269046 0.269046 0.283331 0.297617 0.307141
0.316665 0.326188 0.326188 0.326188 0.326188 0.326188 0.340474 0.340474
0.347617 0.35476 0.35476 0.369045 0.383331 0.390474 0.397617 0.397617
0.397617 0.40476 0.411902 0.411902 0.419045 0.426188 0.43095 0.435712
0.440474 0.454759 0.459521 0.464283 0.469045 0.472617 0.476188 0.469045
0.45476 0.449998 0.445236 0.411903 0.297617 0.311903 0.326188 0.333331
0.340474 0.35476 0.369046 0.376188 0.383331 0.411903 0.426188 0.433331
0.440474 0.35476 0.197617 0.483331 0.540474 0.540474 0.540474 0.540474
0.540474 0.540474 0.540474 0.540474 0.540474 0.526189 0.519046 0.511903
0.511903 0.511903 0.511903 0.511903 0.511903 0.511903 0.511903 0.511903
0.511903 0.511903 0.511903 0.511903 0.511903 0.511903 0.511903 0.507141
0.492855 0.492855 0.492855 0.307141 0.307141 0.307141 0.307141 0.307141
0.307141 0.307141 0.299999 0.292856 0.497617 0.490474 0.483332 0.469046
0.469046 0.469046 0.469046 0.469046 0.469046 0.45476 0.45476 0.45476
0.440475 0.440475 0.440475 0.435713 0.430951 0.426189 0.411904 0.369047
0.354761 0.347618 0.297618 0.269047 0.22619 0.219047 0.12619 0.0690472
0.0119045 0.00238069 -0.0071431 -0.0880953 -0.130952 0.283332 0.269046
0.240475 0.233332 0.226189 0.211904 0.197618 0.169047 0.147618 0.140475
0.126189 0.10238 0.0928562 0.0833324 0.0690467 0.011904 -0.00952452
-0.0166674 -0.0452387 -0.0595244 -0.130953 -0.195238 -0.202381 -0.230953
-0.254762 -0.264286 -0.27381 -0.330952 -0.345238 -0.373809 -0.380952
-0.388095 -0.416667 -0.430952 -0.466666 -0.473809 -0.488095 -0.502381
-0.509523 -0.516666 -0.559523 -0.573809 -0.60238 -0.609523 -0.616666
-0.630952 -0.659523 -0.666666 -0.673809 -0.688094 -0.70238 -0.716666
-0.75238 -0.759523 -0.773809 -0.773809 -0.773809 -0.773809 -0.788094
-0.807142 -0.811904 -0.816666 -0.830951 -0.838094 -0.845237 -0.85238
-0.859523 -0.873808 -0.888094 -0.895237 -0.90238 -0.90238 -0.916665
-0.923808 -0.930951 -0.945237 -0.959522 -0.959522 -0.959522 -0.959522
-0.973808 -0.973808 -0.973808 -0.973808 -0.973808 -0.973808 -0.973808
-0.973808 -0.973808 -0.988094 -0.988094 -0.988094 -0.988094 -0.988094
-1.00238 -0.959523;
15, -0.845237 -0.835714 -0.82619 -0.788095 -0.759523 -0.745237 -0.730952
-0.716666 -0.688095 -0.602381 -0.0880965 -0.109525 -0.130954 -0.288096
-0.302382 -0.330953 -0.338096 -0.37381 0.111903 0.126189 0.133332 0.140474
0.169046 0.183331 0.190474 0.197617 0.211903 0.226189 0.240474 0.245236
0.249998 0.25476 0.269046 0.269046 0.269046 0.283331 0.297617 0.307141
0.316665 0.326188 0.326188 0.326188 0.326188 0.326188 0.340474 0.340474
0.347617 0.35476 0.35476 0.369045 0.383331 0.390474 0.397617 0.397617
0.397617 0.40476 0.411902 0.411902 0.419045 0.426188 0.43095 0.435712
0.440474 0.454759 0.459521 0.464283 0.469045 0.472617 0.476188 0.469045
0.45476 0.449998 0.445236 0.411903 0.297617 0.311903 0.326188 0.333331
0.340474 0.35476 0.369046 0.376188 0.383331 0.411903 0.426188 0.433331
0.440474 0.35476 0.197617 0.483331 0.540474 0.540474 0.540474 0.540474
0.540474 0.540474 0.540474 0.540474 0.540474 0.526189 0.519046 0.511903
0.511903 0.511903 0.511903 0.511903 0.511903 0.511903 0.511903 0.511903
0.511903 0.511903 0.511903 0.511903 0.511903 0.511903 0.511903 0.507141
0.492855 0.492855 0.492855 0.307141 0.307141 0.307141 0.307141 0.307141
0.307141 0.307141 0.299999 0.292856 0.497617 0.490474 0.483332 0.469046
0.469046 0.469046 0.469046 0.469046 0.469046 0.45476 0.45476 0.45476
0.440475 0.440475 0.440475 0.435713 0.430951 0.426189 0.411904 0.369047
0.354761 0.347618 0.297618 0.269047 0.22619 0.219047 0.12619 0.0690472
0.0119045 0.00238069 -0.0071431 -0.0880953 -0.130952 0.283332 0.269046
0.240475 0.233332 0.226189 0.211904 0.197618 0.169047 0.158333 0.147618
0.136904 0.12619 0.111904 0.111904 0.107142 0.10238 0.0976186 0.0976186
0.0976186 0.0976186 0.0976186 0.0833329 0.0833329 0.0833329 0.0833329
0.0833329 0.0833329 0.0833329 0.0833329 0.0833329 0.0833329 0.0833329
0.0833329 0.0833329 0.0833329 0.0833329 -0.488095 -0.502381 -0.509523
-0.516666 -0.559523 -0.573809 -0.60238 -0.609523 -0.616666 -0.630952
-0.659523 -0.666666 -0.673809 -0.688094 -0.70238 -0.716666 -0.75238
-0.759523 -0.773809 -0.773809 -0.773809 -0.773809 -0.788094 -0.807142
-0.811904 -0.816666 -0.830951 -0.838094 -0.845237 -0.85238 -0.859523
-0.873808 -0.888094 -0.895237 -0.90238 -0.90238 -0.916665 -0.923808
-0.930951 -0.945237 -0.959522 -0.959522 -0.959522 -0.959522 -0.973808
-0.973808 -0.973808 -0.973808 -0.973808 -0.973808 -0.973808 -0.973808
-0.973808 -0.988094 -0.988094 -0.988094 -0.988094 -0.988094 -1.00238
-0.959523;
16, -1.01667 -1.00238 -0.988095 -0.980952 -0.959523 -0.945238 -0.930952
-0.923809 -0.916666 -0.902381 -0.859524 -0.85 -0.840476 -0.830952 -0.816666
-0.788095 -0.773809 -0.745238 -0.730952 -0.716667 -0.709524 -0.702381
-0.516667 -0.416667 -0.402382 -0.395239 -0.388096 -0.359525 -0.316668
-0.302382 -0.245239 -0.216668 -0.202382 -0.180954 -0.145239 -0.102382
0.911901 0.926187 0.926187 0.926187 0.926187 0.926187 0.926187 0.926187
0.926187 0.926187 0.926187 0.926187 0.926187 0.926187 0.926187 0.926187
0.926187 0.911901 0.907139 0.902377 0.897616 0.897616 0.890473 0.88333
0.88333 0.88333 0.88333 0.88333 0.876187 0.854759 0.840473 0.826187
0.819044 0.811901 0.811901 0.811901 0.811901 0.811901 0.811901 0.811901
0.811901 0.80714 0.802378 0.797616 0.78333 0.769044 0.769044 -0.0643005
-0.0754117 -0.086523 -0.197636 -0.214302 -0.230969 -0.242081 -0.253192
-0.264303 -0.28097 -0.297637 -0.297637 -0.297637 -0.297637 -0.297637
-0.297637 -0.297637 -0.297637 -0.297637 -0.297637 -0.297637 -0.297637
-0.297637 -0.297637 -0.297637 -0.297637 -0.297637 -0.297637 -0.297637
-0.297637 -0.297637 -0.297637 -0.29097 -0.284303 -0.277637 -0.27097
-0.264303 -0.253192 -0.242081 -0.230969 -0.214302 -0.197636 -0.186524
-0.175413 -0.164302 -0.153191 -0.142079 -0.130968 -0.114301 0.102368
0.11348 0.124591 0.435706 0.46904 0.502374 0.513485 0.524596 0.535708
0.549041 0.562375 0.575708 0.589042 0.602375 0.602375 0.602375 0.602375
0.602375 0.602375 0.602375 0.602375 0.602375 0.602375 0.602375 0.602375
0.602375 0.602375 0.602375 0.602375 0.602375 0.602375 0.602375 0.602375
0.602375 0.602375 0.585708 0.569041 0.55793 0.546819 0.535708 0.524596
0.513485 -0.130968 -0.180969 -0.264303 -0.275414 -0.286526 -0.297637
-0.314304 -0.330971 -0.342082 -0.353193 -0.364304 -0.375416 -0.386527
-0.397638 -0.397638 -0.49764 -0.49764 -0.49764 -0.49764 -0.49764 -0.49764
-0.49764 -0.49764 -0.49764 -0.49764 -0.49764 -0.49764 -0.49764 -0.49764
-0.486528 -0.475417 -0.464306 -0.447639 -0.430972 -0.25097 -0.237636
-0.224303 -0.210969 -0.197636 0.11348 0.124591 0.135702 0.146813 0.157925
0.169036 0.152369 0.135702 0.0823681 0.0623678 0.0423676 0.0223673
0.00236702 -0.042078 -0.0531893 -0.0643005 -0.0976343 -0.130968 -0.164302
-0.247636 -0.264303 -0.275414 -0.286526 -0.297637 -0.314304 -0.330971
-0.353193 -0.375416 -0.397638 -0.40875 -0.419861 -0.430972 -0.480973
-0.49764 -0.508751 -0.519862 -0.530973 -0.530973 -0.530973 -0.542085
-0.553196 -0.564307 -0.619864 -0.642086 -0.664309 -0.730976;
17, -1.01667 -1.00238 -0.988095 -0.980952 -0.959523 -0.945238 -0.930952
-0.923809 -0.916666 -0.902381 -0.859524 -0.85 -0.840476 -0.830952 -0.816666
-0.788095 -0.773809 -0.745238 -0.730952 -0.716667 -0.709524 -0.702381
-0.516667 -0.416667 -0.402382 -0.395239 -0.388096 -0.359525 -0.316668
-0.302382 -0.245239 -0.216668 -0.202382 -0.180954 -0.145239 -0.102382
0.911901 0.926187 0.926187 0.926187 0.926187 0.926187 0.926187 0.926187
0.926187 0.926187 0.926187 0.926187 0.926187 0.926187 0.926187 0.926187
0.926187 0.911901 0.907139 0.902377 0.897616 0.897616 0.890473 0.88333
0.88333 0.88333 0.88333 0.88333 0.876187 0.854759 0.840473 0.826187
0.819044 0.811901 0.811901 0.811901 0.811901 0.811901 0.811901 0.811901
0.811901 0.80714 0.802378 0.797616 0.78333 0.769044 0.769044 -0.0643005
-0.0754117 -0.086523 -0.197636 -0.214302 -0.230969 -0.242081 -0.253192
-0.264303 -0.28097 -0.297637 -0.297637 -0.297637 -0.297637 -0.297637
-0.297637 -0.297637 -0.297637 -0.297637 -0.297637 -0.297637 -0.297637
-0.297637 -0.297637 -0.297637 -0.297637 -0.297637 -0.297637 -0.297637
-0.297637 -0.297637 -0.297637 -0.29097 -0.284303 -0.277637 -0.27097
-0.264303 -0.253192 -0.242081 -0.230969 -0.214302 -0.197636 -0.186524
-0.175413 -0.164302 -0.153191 -0.142079 -0.130968 0.185699 0.185699
0.185699 0.185699 0.185699 0.185699 0.185699 0.185699 0.185699 0.185699
0.185699 0.185699 0.185699 0.185699 0.172365 0.159032 0.145699 0.132365
0.119032 0.119032 0.119032 0.119032 0.112365 0.105699 0.0990321 0.0923655
0.0856988 0.0856988 0.0856988 0.0745877 0.0634766 0.0523655 0.0456989
0.0390322 0.0323655 0.0256989 0.0190322 0.0190322 0.0190322 -0.0143011
-0.0143011 -0.0143011 -0.0365233 -0.0587455 -0.0809677 -0.0920788 -0.10319
-0.180968 -0.180968 -0.280967 -0.292079 -0.30319 -0.380967 -0.414301
-0.480967 -0.480967 -0.480967 -0.514301 -0.514301 -0.514301 -0.547634
-0.547634 -0.580967 -0.603189 -0.625412 -0.647634 -0.647634 -0.647634
-0.647634 -0.647634 -0.680967 -0.680967 -0.680967 -0.680967 -0.697634
-0.7143 -0.7143 -0.7143 -0.7143 -0.7143 -0.7143 -0.725412 -0.736523
-0.747634 -0.747634 -0.747634 -0.747634 -0.747634 -0.747634 -0.758745
-0.769856 -0.780967 -0.780967 -0.780967 -0.792078 -0.803189 -0.8143
-0.8143 -0.847634 -0.847634 -0.847634 -0.847634 -0.858745 -0.869856
-0.880967 -0.890491 -0.900014 -0.909538 -0.919062 -0.928586 -0.93811
-0.980967 -0.980967 -0.980967 -0.980967 -0.980967 -0.980967 -0.980967
-0.980967 -1.0143 -1.0143 -1.0143 -1.0143 -1.0143 -1.0143 -1.0143 -1.0143
-1.0143;
18, -1.01667 -1.00238 -0.988095 -0.980952 -0.959523 -0.945238 -0.930952
-0.923809 -0.916666 -0.902381 -0.859524 -0.85 -0.840476 -0.830952 -0.816666
-0.788095 -0.773809 -0.745238 -0.730952 -0.716667 -0.709524 -0.702381
-0.516667 -0.416667 -0.402382 -0.395239 -0.388096 -0.359525 -0.316668
-0.302382 -0.245239 -0.216668 -0.202382 -0.180954 -0.145239 -0.102382
0.911901 0.926187 0.926187 0.926187 0.926187 0.926187 0.926187 -0.680964
-0.569855 -0.558744 -0.547633 -0.530967 -0.5143 -0.403191 -0.39208
-0.380969 -0.364303 -0.347636 -0.236527 -0.225416 -0.214305 0.102357
0.25791 0.280132 0.302354 0.452352 0.469018 0.502351 0.535684 0.569016
0.835679 0.869012 0.902345 0.952344 0.935678 0.557905 0.546795 0.535684
0.322354 0.30902 0.295687 0.282354 0.269021 0.0134694 -0.0087525 -0.0309744
-0.314303 -0.33097 -0.342081 -0.353192 -0.364303 -0.364303 -0.364303
-0.364303 -0.364303 -0.364303 -0.364303 -0.364303 -0.364303 -0.364303
-0.364303 -0.353192 -0.342081 -0.33097 -0.314303 -0.297637 -0.297637
-0.297637 -0.297637 -0.297637 -0.297637 -0.297637 -0.297637 -0.297637
-0.297637 -0.297637 -0.297637 -0.297637 -0.297637 -0.29097 -0.284303
-0.277637 -0.27097 -0.264303 -0.253192 -0.242081 -0.230969 -0.214302
-0.197636 -0.186524 -0.175413 -0.164302 -0.153191 -0.142079 -0.130968
0.185699 0.19681 0.207921 1.11902 1.10568 -0.380959 -0.39207 -0.403181
-0.414292 -0.397625 -0.380959 -0.369848 -0.358737 -0.247628 -0.236517
-0.225406 -0.147629 -0.134296 -0.120963 -0.10763 -0.0942967 0.252365
0.269031 0.619026 0.630137 0.641248 0.919021 0.935688 -0.447625 -0.458736
-0.469847 -0.480958 -0.492068 -0.503179 -0.547623 -0.56429 -0.580956
-0.592067 -0.603178 -0.547623 -0.530957 -0.480957 -0.469847 -0.458736
-0.447625 -0.436514 -0.425403 -0.347626 -0.33096 -0.214295 -0.192073
-0.169851 -0.014298 0.00236845 -0.51429 -0.525401 -0.536512 -0.547623
-0.558734 -0.569845 -0.580956 -0.597622 -0.614289 -0.6254 -0.636511
-0.647622 -0.647622 -0.647622 -0.647622 -0.658733 -0.669843 -0.680954
1.10791 0.619026 0.596804 0.574582 0.819023 -0.592067 -0.247628 0.00236845
0.0523677 -0.725412 -0.736523 -0.747634 -0.747634 -0.747634 -0.747634
-0.747634 -0.747634 -0.758745 -0.769856 -0.780967 -0.780967 -0.780967
-0.792078 -0.803189 -0.8143 -0.8143 -0.847634 -0.847634 -0.847634 -0.847634
-0.858745 -0.869856 -0.880967 -0.890491 -0.900014 -0.909538 -0.919062
-0.928586 -0.93811 -0.980967 -0.980967 -0.980967 -0.980967 -0.980967
-0.980967 -0.980967 -0.980967 -1.0143 -1.0143 -1.0143 -1.0143 -1.0143
-1.0143 -1.0143 -1.0143 -1.0143;
19, -1.01667 -1.00238 -0.988095 -0.980952 -0.959523 -0.945238 -0.930952
-0.923809 -0.916666 -0.902381 -0.859524 -0.85 -0.840476 -0.830952 -0.816666
-0.788095 -0.773809 -0.745238 -0.730952 -0.716667 -0.709524 -0.702381
-0.516667 -0.416667 -0.402382 -0.395239 -0.388096 -0.359525 -0.316668
-0.302382 -0.245239 -0.216668 -0.202382 -0.180954 -0.145239 -0.102382
0.911901 0.926187 0.926187 0.926187 0.926187 0.926187 0.926187 0.926187
0.926187 0.926187 0.926187 0.926187 0.926187 0.926187 0.926187 0.926187
0.926187 0.911901 0.907139 0.902377 0.897616 0.897616 0.890473 0.88333
0.88333 0.88333 0.88333 0.88333 0.876187 0.854759 0.840473 0.826187
0.819044 0.811901 0.811901 0.811901 0.811901 0.811901 0.811901 0.811901
0.811901 0.80714 0.802378 0.797616 0.78333 0.769044 0.769044 -0.0643005
-0.0754117 -0.086523 -0.197636 -0.214302 -0.230969 -0.242081 -0.253192
-0.264303 -0.28097 -0.297637 -0.297637 -0.297637 -0.297637 -0.297637
-0.297637 -0.297637 -0.297637 -0.297637 -0.297637 -0.297637 -0.297637
-0.297637 -0.297637 -0.297637 -0.297637 -0.297637 -0.297637 -0.297637
-0.297637 -0.297637 -0.297637 -0.29097 -0.284303 -0.277637 -0.27097
-0.264303 -0.253192 -0.242081 -0.230969 -0.214302 -0.197636 -0.186524
-0.175413 -0.164302 -0.153191 -0.142079 -0.130968 0.185699 0.185699
0.185699 0.185699 0.185699 0.185699 0.185699 0.185699 0.185699 0.185699
0.185699 0.185699 0.185699 0.185699 0.172365 0.159032 0.145699 0.132365
0.119032 0.119032 0.119032 0.119032 0.112365 0.105699 0.0990321 0.0923655
0.0856988 0.0856988 0.0856988 0.0745877 0.0634766 0.0523655 0.0456989
0.0390322 0.0323655 0.0256989 0.0190322 0.0190322 0.0190322 -0.0143011
-0.0143011 -0.0143011 -0.0365233 -0.0587455 -0.0809677 -0.0920788 -0.10319
-0.180968 -0.180968 -0.280967 -0.292079 -0.30319 -0.380967 -0.414301
-0.480967 -0.480967 -0.480967 -0.514301 -0.514301 -0.514301 -0.547634
-0.547634 -0.580967 -0.603189 -0.625412 -0.647634 -0.647634 -0.647634
-0.647634 -0.647634 -0.680967 -0.680967 -0.680967 -0.680967 -0.697634
-0.7143 -0.7143 -0.7143 -0.7143 -0.7143 -0.7143 -0.725412 -0.736523
-0.747634 -0.747634 -0.747634 -0.747634 -0.747634 -0.747634 -0.758745
-0.769856 -0.780967 -0.780967 -0.780967 -0.792078 -0.803189 -0.8143
-0.8143 -0.847634 -0.847634 -0.847634 -0.847634 -0.858745 -0.869856
-0.880967 -0.890491 -0.900014 -0.909538 -0.919062 -0.928586 -0.93811
-0.980967 -0.980967 -0.980967 -0.980967 -0.980967 -0.980967 -0.980967
-0.980967 -1.0143 -1.0143 -1.0143 -1.0143 -1.0143 -1.0143 -1.0143 -1.0143
-1.0143;
20, -1.01667 -1.00238 -0.988095 -0.980952 -0.959523 -0.945238 -0.697626
-0.714292 -0.730959 -0.730959 -0.730959 -0.730959 -0.730959 -0.730959
-0.730959 -0.730959 -0.730959 -0.730959 -0.730959 -0.730959 -0.730959
-0.730959 -0.730959 -0.730959 -0.730959 -0.730959 -0.730959 -0.730959
-0.730959 -0.730959 -0.730959 -0.730959 -0.730959 -0.730959 -0.730959
-0.730959 -0.730959 -0.730959 -0.730959 -0.730959 -0.730959 -0.730959
-0.730959 -0.730959 -0.730959 -0.730959 -0.730959 -0.730959 -0.730959
-0.730959 -0.730959 -0.730959 -0.730959 -0.730959 -0.730959 -0.730959
-0.730959 -0.730959 -0.730959 -0.730959 -0.730959 -0.730959 -0.730959
-0.730959 -0.730959 -0.730959 -0.730959 -0.730959 -0.730959 -0.717626
-0.704293 -0.690959 -0.677626 -0.664293 -0.664293 -0.664293 -0.664293
-0.664293 -0.664293 -0.664293 -0.664293 -0.664293 -0.664293 -0.664293
-0.664293 -0.664293 -0.664293 -0.664293 -0.664293 -0.664293 -0.664293
-0.664293 -0.664293 -0.664293 -0.664293 -0.664293 -0.664293 -0.664293
-0.664293 -0.664293 -0.664293 -0.664293 -0.664293 -0.664293 -0.664293
-0.664293 -0.664293 -0.664293 -0.657627 -0.65096 -0.644293 -0.637627
-0.63096 -0.63096 -0.63096 -0.63096 -0.63096 -0.63096 -0.63096 -0.63096
-0.63096 -0.63096 -0.63096 -0.63096 -0.63096 -0.63096 -0.63096 -0.63096
-0.63096 -0.63096 -0.63096 -0.63096 -0.63096 -0.63096 -0.63096 0.835684
0.846795 0.857906 0.869017 0.869017 0.869017 0.869017 0.869017 0.869017
0.869017 0.869017 0.869017 0.869017 0.869017 0.869017 0.869017 0.869017
0.869017 0.869017 0.869017 0.869017 0.869017 0.869017 0.869017 0.869017
0.869017 0.869017 0.857906 0.846795 0.835684 0.835684 0.835684 0.824573
0.813462 0.802351 0.795684 0.789018 0.782351 0.775685 0.469023 0.446801
0.424579 0.269026 0.219027 -0.297632 -0.319854 -0.342076 -0.464296
-0.480963 -0.497629 -0.50874 -0.519851 -0.530962 -0.542073 -0.553184
-0.564295 -0.580961 -0.597627 -0.608738 -0.619849 -0.63096 -0.647627
-0.664293 -0.675404 -0.686515 -0.697626 -0.697626 -0.697626 -0.697626
-0.697626 -0.697626 -0.704293 -0.710959 -0.717626 -0.724292 -0.730959
-0.730959 -0.730959 -0.730959 -0.730959 -0.730959 -0.730959 -0.730959
-0.730959 -0.74207 -0.753181 -0.764292 -0.764292 -0.764292 -0.764292
-0.764292 -0.764292 -0.777625 -0.790958 -0.804291 -0.817624 -0.830957
-0.842068 -0.853179 -0.86429 -0.86429 -0.86429 -0.86429 -0.86429 -0.86429
-0.86429 -0.86429 -0.875401 -0.886512 -0.897623 -0.897623 -0.897623
-0.897623 -0.897623 -0.897623 -0.908734 -0.919845 -0.930956 -0.930956
-0.930956 -1.0143 -1.0143 -1.0143 -1.0143;
21, -0.0189224 0 0.0189224 0.0373363 0.0548595 0.0713163 0.0867443
0.101337 0.115356 0.129054 0.142649 0.156335 0.170323 0.184864 0.20022
0.216601 0.234066 0.252459 0.271405 0.290383 0.308856 0.326415 0.342869
0.358266 0.372828 0.386852 0.400611 0.414314 0.428118 0.442185 0.456724
0.471994 0.488231 0.505545 0.523829 0.54273 0.561713 0.580202 0.597751
0.614165 0.629524 0.64411 0.658269 0.672272 0.686261 0.700274 0.714358
0.728673 0.743534 0.759332 0.776373 0.794684 0.813909 0.83335 0.852175
0.869719 0.885751 0.900577 0.914907 0.929521 0.944838 0.960576 0.975652
0.988386 0.996966 1 0.996967 0.988387 0.975653 0.960577 0.944839 0.929523
0.914909 0.900578 0.885753 0.869721 0.852177 0.833352 0.813911 0.794686
0.776375 0.759334 0.743535 0.728675 0.71436 0.700276 0.686262 0.672274
0.65827 0.644112 -0.803785 -0.814896 -0.826007 -0.837118 -0.853785
-0.870451 -0.881562 -0.892673 -0.903784 -0.903784 -0.903784 -0.903784
-0.903784 -0.903784 -0.903784 -0.903784 -0.903784 -0.903784 -0.903784
-0.903784 -0.903784 -0.903784 -0.903784 -0.903784 -0.903784 -0.903784
-0.903784 -0.903784 -0.903784 -0.903784 -0.903784 -0.903784 -0.897117
-0.890451 -0.883784 -0.877118 -0.870451 -0.870451 -0.870451 -0.870451
-0.870451 -0.870451 -0.870451 -0.870451 -0.870451 -0.870451 -0.870451
-0.870451 -0.870451 -0.870451 -0.870451 -0.870451 -0.870451 -0.870451
-0.870451 -0.870451 -0.870451 -0.870451 -0.870451 -0.870451 -0.870451
-0.870451 -0.870451 -0.870451 -0.870451 -0.870451 -0.870451 -0.870451
-0.870451 -0.870451 -0.870451 -0.870451 -0.870451 -0.870451 -0.870451
-0.870451 -0.870451 -0.870451 -0.870451 -0.870451 -0.870451 -0.870451
-0.870451 -0.870451 -0.870451 -0.870451 -0.870451 -0.870451 -0.870451
-0.870451 -0.870451 -0.870451 -0.870451 -0.870451 -0.870451 -0.870451
0.829523 0.846189 0.862856 0.851745 0.840634 0.829523 0.818412 0.807301
0.79619 0.779524 0.762857 0.749524 0.736191 0.722858 0.709525 0.662859
0.651748 0.640637 0.629526 0.596193 0.56286 0.362863 0.34953 0.336197
0.322864 0.309531 0.296198 0.262865 0.196199 0.185088 0.173977 0.062868
0.0406461 0.0184242 -0.00379765 -0.0371305 -0.0704633 -0.0815742 -0.0926852
-0.103796 -0.137129 -0.203795 -0.226016 -0.248238 -0.27046 -0.287127
-0.337126 -0.348237 -0.359348 -0.370459 -0.38157 -0.392681 -0.403792
-0.420458 -0.437124 -0.448235 -0.459346 -0.637121 -0.653788 -0.670454
-0.692676 -0.714898 -0.73712 -0.748231 -0.759342 -0.770453 -0.787119
-0.837118 -0.85934 -0.881562 -0.937117 -0.953783 -1.03712;
22, -1.01667 -1.00238 -1.0643 -1.05319 -1.04208 -1.03096 -1.01985
-1.00874 -0.997631 -0.980964 -0.964297 -0.953186 -0.942075 -0.930963
-0.930963 -0.930963 -0.919852 -0.908741 -0.897629 -0.886518 -0.875407
-0.864296 -0.814295 -0.797628 -0.753183 -0.742072 -0.730961 -0.714294
-0.697627 -0.608737 -0.586514 -0.564292 -0.430957 -0.397623 -0.297621
-0.264288 -0.230954 -0.142064 -0.119841 -0.0976188 -0.064285 -0.0309513
-0.01984 -0.00872874 0.00238252 0.189052 0.209052 0.229052 0.249052
0.269053 0.389054 0.409055 0.429055 0.449055 0.469055 0.482389 0.495722
0.509056 0.522389 0.535723 0.680169 0.691281 0.702392 0.746837 0.757948
0.769059 0.802393 0.835727 0.957951 0.980173 1.0024 1.08573 1.06906
1.05795 1.04684 1.03573 0.957951 0.94684 0.935728 0.919061 0.902395
0.891283 0.880172 0.869061 0.735726 0.702392 0.691281 0.680169 0.669058
0.55239 0.535723 0.5135 0.491278 0.469055 0.357943 0.346832 0.33572
0.219052 0.202385 -0.0865076 -0.10873 -0.130953 -0.214287 -0.230954
-0.264288 -0.297621 -0.330955 -0.508735 -0.55318 -0.597625 -1.14763
-1.1643 -1.15319 -1.14208 -1.13097 -1.0843 -1.07097 -1.05763 -1.0443
-1.03096 -1.01985 -1.00874 -0.997631 -0.814295 -0.797628 -0.708738
-0.686516 -0.664293 -0.617626 -0.604292 -0.590959 -0.577625 -0.564292
-0.530958 -0.497624 -0.442068 -0.419845 -0.397623 -0.386512 -0.3754
-0.364289 -0.347622 -0.330955 -0.297621 -0.264288 -0.230954 -0.214287
-0.19762 -0.10873 -0.0865075 -0.064285 -0.00872868 0.0134938 0.0357164
0.0523832 0.0690501 0.0912727 0.113495 0.135718 0.185718 0.202385 0.235719
0.269053 0.302387 0.369054 0.402388 0.435722 0.452389 0.469055 0.502389
0.535723 0.569057 0.602391 0.635724 0.657947 0.680169 0.702392 0.769059
0.802393 0.835727 0.919061 0.935728 0.924617 0.913506 0.902395 0.885728
0.869061 0.846838 0.824616 0.802393 0.785726 0.769059 0.757948 0.746837
0.735726 0.724614 0.713503 0.702392 0.685725 0.669058 0.591279 0.580168
0.569057 0.502389 0.469055 0.457944 0.446833 0.435722 0.413499 0.391277
0.369054 0.319053 0.302387 0.113495 0.0912727 0.0690501 -0.0809519
-0.0976188 -0.10873 -0.119841 -0.130953 -0.142064 -0.153175 -0.164286
-0.297621 -0.330955 -0.397623 -0.430957 -0.46429 -0.497624 -0.530958
-0.55318 -0.575403 -0.597625 -0.608737 -0.619848 -0.630959 -0.664293
-0.697627 -0.719849 -0.742072 -0.764294 -0.797628 -0.830962 -0.897623
-0.897623 -0.897623 -0.897623 -0.897623 -0.897623 -0.908734 -0.919845
-0.930956 -0.930956 -0.930956 -1.0143 -1.0143 -1.0143 -1.0143;
23, -0.0245412 0 0.0245412 0.0490676 0.0735645 0.0980171 0.122411
0.14673 0.170962 0.19509 0.219101 0.24298 0.266713 0.290284 0.313681
0.33689 0.359895 0.382683 0.405241 0.427555 0.449611 0.471396 0.492898
0.514102 0.534997 0.55557 0.575808 0.595699 0.615231 0.634393 0.653172
0.671558 0.68954 0.673773 0.673773 0.673773 0.573775 0.557108 0.407111
0.407111 0.407111 0.407111 0.844853 0.857728 0.870087 0.881921 0.893224
0.903989 0.914209 0.923879 0.932992 0.941544 0.949528 0.95694 0.963776
0.970031 0.975702 0.980785 0.985277 0.989176 0.992479 0.995185 0.99729
0.998795 0.999699 1 0.999699 0.998796 0.997291 0.995185 0.99248 0.989177
0.985278 0.980786 0.975702 0.970032 0.963776 0.956941 0.949529 0.941545
0.932993 0.92388 0.91421 0.90399 0.893225 0.881922 0.870088 0.85773
0.844855 0.831471 0.817586 0.803209 0.788348 0.773012 0.75721 0.740952
0.724248 0.707108 0.689542 0.67156 0.653174 0.634395 0.615233 0.595701
0.57581 0.555572 0.534999 0.514105 0.4929 0.471399 0.449613 0.427557
0.405243 0.382686 0.359897 0.336892 0.313684 0.290287 0.266715 0.242983
0.219104 0.195093 0.170964 0.146733 0.122413 0.0980197 0.0735671 0.0490703
0.0245439 2.65359e-06 -0.0245386 -0.049065 -0.0735619 -0.0980144 -0.122408
-0.146728 -0.170959 -0.195088 -0.219098 -0.242977 -0.26671 -0.290282
-0.313679 -0.336887 -0.359892 -0.382681 -0.405239 -0.427552 -0.449609
-0.471394 -0.492896 -0.5141 -0.534995 -0.555568 -0.575806 -0.595697
-0.615229 -0.634391 -0.65317 -0.671557 -0.689538 -0.707104 -0.724245
-0.740949 -0.757207 -0.773008 -0.788344 -0.803205 -0.817583 -0.831468
-0.844852 -0.857727 -0.870085 -0.88192 -0.893223 -0.903988 -0.914208
-0.923878 -0.932992 -0.941543 -0.949527 -0.956939 -0.963775 -0.97003
-0.975701 -0.980785 -0.985277 -0.989176 -0.992479 -0.995184 -0.99729
-0.998795 -0.999699 -1 -0.999699 -0.998796 -0.997291 -0.995185 -0.99248
-0.989177 -0.985278 -0.980786 -0.975703 -0.970032 -0.963777 -0.956942
-0.94953 -0.941545 -0.932994 -0.923881 -0.914212 -0.903991 -0.893226
-0.881923 -0.870089 -0.857731 -0.844856 -0.831472 -0.817587 -0.80321
-0.788349 -0.773013 -0.757212 -0.740954 -0.72425 -0.70711 -0.689544
-0.671562 -0.653176 -0.634397 -0.615235 -0.595703 -0.575812 -0.555574
-0.535002 -0.514107 -0.492902 -0.471401 -0.449616 -0.42756 -0.405246
-0.382688 -0.3599 -0.336895 -0.313687 -0.29029 -0.266718 -0.242985
-0.219106 -0.195095 -0.170967 -0.146736 -0.122416 -0.0980223 -0.0735698
-0.0490729 -0.0245465 -5.30718e-06 0.0245359;
